{
  "EGY": {
    "number": "500",
    "datacenter": "GBR"
  },
  "USA": {
    "number": "1000"
  },
  "ITA": {
    "number": "5",
    "datacenter": "GBR"
  },
  "BRA": {
    "number": "5"
  },
  "AUS": {
    "number": "50"
  }
}